D:\Documents\SoftServe\Dp-092\Project\CRS\src\main\java\com\nss\crs\persistence\OrderDAO.java
D:\Documents\SoftServe\Dp-092\Project\CRS\src\main\java\com\nss\crs\controller\car\CarCRUD.java
D:\Documents\SoftServe\Dp-092\Project\CRS\src\main\java\com\nss\crs\model\Customer.java
D:\Documents\SoftServe\Dp-092\Project\CRS\src\main\java\com\nss\crs\controller\order\OrderCRUD.java
D:\Documents\SoftServe\Dp-092\Project\CRS\src\main\java\com\nss\crs\persistence\service\DAOFactory.java
D:\Documents\SoftServe\Dp-092\Project\CRS\src\main\java\com\nss\crs\persistence\impl\CarCollectionDAOImpl.java
D:\Documents\SoftServe\Dp-092\Project\CRS\src\main\java\com\nss\crs\persistence\impl\OrderCollectionDAOImpl.java
D:\Documents\SoftServe\Dp-092\Project\CRS\src\main\java\com\nss\crs\persistence\store\CollectionStore.java
D:\Documents\SoftServe\Dp-092\Project\CRS\src\main\java\com\nss\crs\model\Entity.java
D:\Documents\SoftServe\Dp-092\Project\CRS\src\main\java\com\nss\crs\persistence\CarDAO.java
D:\Documents\SoftServe\Dp-092\Project\CRS\src\main\java\com\nss\crs\model\Order.java
D:\Documents\SoftServe\Dp-092\Project\CRS\src\main\java\com\nss\crs\persistence\service\AbstractDAO.java
D:\Documents\SoftServe\Dp-092\Project\CRS\src\main\java\com\nss\crs\persistence\service\EntityDAOFactory.java
D:\Documents\SoftServe\Dp-092\Project\CRS\src\main\java\com\nss\crs\model\Car.java
D:\Documents\SoftServe\Dp-092\Project\CRS\src\main\java\com\nss\crs\persistence\service\CollectionDAOFactory.java
